<?xml version="1.0" encoding="UTF-8"?>
<svg xmlns="http://www.w3.org/2000/svg" xmlns:xlink="http://www.w3.org/1999/xlink" width="68px" height="69px" viewBox="0 0 68 69">
  <!-- Generator: Sketch 56.2 (81672) - https://sketch.com -->
  <title>valspec-icones-humour-varietes</title>
  <desc>Created with Sketch.</desc>
  <g id="Page-1" stroke="none" stroke-width="1" fill="none" fill-rule="evenodd">
    <g id="Artboard" transform="translate(-450.000000, -71.000000)" stroke="#FFFFFF">
      <g id="valspec-icones-humour-varietes" transform="translate(451.000000, 72.000000)">
        <circle id="Oval" stroke-width="2.0333" cx="33.02" cy="33.19" r="32.87"></circle>
        <path d="M48.93,24.54 C52.62,24.54 55.6,28.49 55.6,33.36 C55.6,36.93 54,40 51.69,41.39 L48.93,24.54 Z M44.78,27.91 C47.51,27.91 49.73,30.84 49.73,34.45 C49.73,37.1 48.54,39.38 46.83,40.41 L44.78,27.91 Z M32.39,47.07 C27.86,48.37 24.49,44.89 22.01,42.64 C22.01,42.64 26.75,42.28 30.37,41.09 C33.98,39.9 37.89,37.41 37.89,37.41 C37.23,40.69 36.76,45.7 32.39,47.07 Z M19.02,37.59 C19.16,35.77 20.06,34.28 21.51,33.8 C22.96,33.32 24.57,33.99 25.76,35.36 C25.76,35.36 23.48,34.63 21.95,35.13 C20.41,35.64 19.02,37.59 19.02,37.59 Z M33.04,30 C34.48,29.52 36.1,30.19 37.29,31.57 C37.29,31.57 35.01,30.84 33.48,31.34 C31.95,31.85 30.55,33.79 30.55,33.79 C30.69,31.97 31.59,30.48 33.04,30 Z M24.78,24.33 C19.23,26.16 13.76,26.53 9.34,25.64 C19.32,55 33.72,51.45 33.72,51.45 C33.72,51.45 47.77,46.82 37.97,16.2 C34.94,19.54 30.33,22.5 24.78,24.33 Z" id="Shape" stroke-width="1.559"></path>
      </g>
    </g>
  </g>
</svg>
