<?xml version="1.0" encoding="UTF-8"?>
<svg preserveAspectRatio="xMidYMid slice" xmlns="http://www.w3.org/2000/svg" xmlns:xlink="http://www.w3.org/1999/xlink" width="24px" height="24px" viewBox="0 0 68 69">
  <!-- Generator: Sketch 56.2 (81672) - https://sketch.com -->
  <title>valspec-icones-theatre</title>
  <desc>Created with Sketch.</desc>
  <g id="Page-1" stroke="none" stroke-width="1" fill="none" fill-rule="evenodd">
    <g id="Artboard" transform="translate(-208.000000, -145.000000)" stroke="#FFFFFF">
      <g id="valspec-icones-theatre" transform="translate(209.000000, 146.000000)">
        <circle id="Oval" stroke-width="2.0333" cx="33.02" cy="33.19" r="32.87"></circle>
        <path d="M49.98,40.13 C48.68,39.69 46.75,40.3 46.75,40.3 C47.77,39.14 49.14,38.59 50.36,39 C51.58,39.41 52.34,40.68 52.45,42.22 C52.45,42.22 51.28,40.57 49.98,40.13 Z M42.96,44.85 C39.9,43.82 35.59,44.54 35.59,44.54 C37.7,42.65 40.75,41.92 43.62,42.89 C46.5,43.86 48.48,46.29 49.01,49.0700235 C49.01,49.08 46.01,45.89 42.96,44.85 Z M40.61,35.71 C41.83,36.12 42.59,37.39 42.7,38.93 C42.7,38.93 41.53,37.27 40.23,36.84 C38.93,36.4 37,37.01 37,37.01 C38.02,35.85 39.39,35.3 40.61,35.71 Z M47.64,30.95 C42.94,29.37 39.05,26.83 36.51,23.98 C28.34,48.96 39.91,53.89 39.91,53.89 C39.91,53.89 51.8,57.9 60.73,32.15 C56.98,32.87 52.34,32.53 47.64,30.95 Z M24.64,39.17 C21.75,40.12 18.72,39.37 16.62,37.46 C16.62,37.46 20.93,38.21 23.99,37.2 C27.05,36.19 30.07,33.02 30.07,33.02 C29.52,35.8 27.52,38.21 24.64,39.17 Z M14.08,33.17 C14.2,31.63 14.96,30.37 16.19,29.96 C17.41,29.56 18.78,30.12 19.79,31.29 C19.79,31.29 17.86,30.67 16.56,31.1 C15.26,31.53 14.08,33.17 14.08,33.17 Z M25.96,26.74 C27.19,26.34 28.55,26.9 29.56,28.07 C29.56,28.07 27.63,27.45 26.33,27.88 C25.03,28.31 23.85,29.96 23.85,29.96 C23.97,28.41 24.74,27.15 25.96,26.74 Z M18.96,21.93 C14.25,23.48 9.61,23.79 5.87,23.04 C14.33,47.93 26.54,44.92 26.54,44.92 C26.54,44.92 38.45,41 30.14,15.04 C27.58,17.87 23.66,20.38 18.96,21.93 Z" id="Shape" stroke-width="1.525"></path>
      </g>
    </g>
  </g>
</svg>
