
{% cache %}

{% set events = craft.calendar.events({calendar: 'shows',startsAfter: "now" }) %}
{
	"event": [			{% for event in events %}
						{% set values = [] %}
						{% set bool = false %}
						{% for ticket in event.showsTicket %}
							{% set values = values|merge([ticket.showsHour]) %}
						{% endfor %}
		{% if loop.index != loop.first%}	
		{
			"title": "{{event.title}}",
			"theater": "{{event.theater.label}}",
			"date": "{{event.startDate|date('j F Y')}}",			
    	{% for discipline in event.disciplines %}
    		"disciplines{{loop.index}}" : "{{discipline.title}}",
    	{% endfor %}
		{% if event.showsHeaderImage|length %}"image": "{{ event.showsHeaderImage.one.url('list') }}",
			{% endif %}
{% if event.occurrences %}
{% for array in event.occurrences %}
{% if array.startDate == event.startDate %}
"time" : "{{values[loop.index]|date('H')}} h {{values[loop.index]|date('i')}}"
{% set bool = true %}
{% endif %}
{% endfor %}
{% if bool == false %}
"time" : "{{values[0]|date('H')}} h {{values[0]|date('i')}}"
{% endif %}
{% else %}
"time" : "{{values[0]|date('H')}} h {{values[0]|date('i')}} "
{% endif %}						    	
{% else %}

		{ 
			"title": "{{event.title}}",
			"theater": "{{event.theater.label}}",
			"date": "{{event.startDate|date('j F Y')}}",			
    	{% for discipline in event.disciplines %}
    		"disciplines{{loop.index}}" : "{{discipline.title}}",
    	{% endfor %}
									{% if event.showsHeaderImage|length %}
						    	"image": "{{ event.showsHeaderImage.one.url('list') }}",
						    	{% endif %}    				
{% if event.occurrences %}{% for array in event.occurrences %}{% if array.startDate == event.startDate %}"time" : "{{values[loop.index]|date('H')}} h {{values[loop.index]|date('i')}}"{% set bool = true %}{% endif %}{% endfor %}{% if bool == false %}"time" : "{{values[0]|date('H')}} h {{values[0]|date('i')}}"{% endif %}{% else %}"time" : "{{values[0]|date('H')}} h {{values[0]|date('i')}}"	 {% endif %}{% endif %}
		{% if loop.index != loop.last and loop.length != 1 %}},{% elseif loop.index == loop.first and loop.length != 1 %}}, {% else %}}{% endif %}{% endfor %}

	]
}
{% endcache %}